Final Project
…
cv_df

## # A tibble: 100 x 9
##    train               test   .id   model_1 model_2 model_3 rmse_1 rmse_2 rmse_3
##    <list>              <list> <chr> <list>  <list>  <list>   <dbl>  <dbl>  <dbl>
##  1 <tibble [351 x 16]> <tibb~ 001   <lm>    <lm>    <lm>      16.2   16.1   15.6
##  2 <tibble [351 x 16]> <tibb~ 002   <lm>    <lm>    <lm>      18.1   17.5   17.0
##  3 <tibble [351 x 16]> <tibb~ 003   <lm>    <lm>    <lm>      20.9   20.2   17.4
##  4 <tibble [351 x 16]> <tibb~ 004   <lm>    <lm>    <lm>      18.9   18.6   17.5
##  5 <tibble [351 x 16]> <tibb~ 005   <lm>    <lm>    <lm>      17.6   16.8   16.3
##  6 <tibble [351 x 16]> <tibb~ 006   <lm>    <lm>    <lm>      18.8   17.9   17.5
##  7 <tibble [351 x 16]> <tibb~ 007   <lm>    <lm>    <lm>      24.0   22.9   18.8
##  8 <tibble [351 x 16]> <tibb~ 008   <lm>    <lm>    <lm>      14.8   14.3   13.7
##  9 <tibble [351 x 16]> <tibb~ 009   <lm>    <lm>    <lm>      16.5   16.4   16.5
## 10 <tibble [351 x 16]> <tibb~ 010   <lm>    <lm>    <lm>      17.2   17.9   17.3
## # ... with 90 more rows
…
